GLEIF API Wrapper • gleif
…
You can install the development version of gleif from GitHub with:

# install.packages("pak")
pak::pak("m-muecke/gleif")

Usage

Currently only the download of the lei mapping data is supported.

library(gleif)

mapping <- lei_mapping("isin")
mapping
#> # A tibble: 7,341,989 × 2
#>   lei                  isin        
#>   <chr>                <chr>       
#> 1 001GPB6A9XPE8XJICC14 US3158052262
#> 2 00EHHQ2ZHDCFXJCPCL46 US92204Q1031
#> 3 00KLB2PFTM3060S2N216 US4138382027
#> 4 00KLB2PFTM3060S2N216 US4138385749
#> 5 01ERPZV3DOLNXY2MLB90 US531554AA10
#> # ℹ 7,341,984 more rows
…
